<?xml version="1.0" encoding="UTF-8"?>
<session version="1.0">
<refactoring comment="Extract method &apos;private void fellInTree(Component [] hareButtons)&apos; from &apos;gui.MainWindow.setTree()&apos; to &apos;gui.MainWindow&apos;&#x0A;- Original project: &apos;The_Hare_And_Turtle_Game&apos;&#x0A;- Method name: &apos;fellInTree&apos;&#x0A;- Destination type: &apos;gui.MainWindow&apos;&#x0A;- Declared visibility: &apos;private&apos;" comments="false" description="Extract method &apos;fellInTree&apos;" destination="0" exceptions="false" flags="786434" id="org.eclipse.jdt.ui.extract.method" input="/src&lt;gui{MainWindow.java" name="fellInTree" replace="false" selection="11487 261" stamp="1509030013591" version="1.0" visibility="2"/>
</session>